{
    "inputMessageMetadata": {
        "messagePayload": {
            "connectorName": "#_custom_mule_metadata_type_#",
            "typeId": "json"
        }
    },
    "outputMessageMetadata": {},
    "id": "300f3957-96ad-4f87-8e8a-c9957e22977d",
    "version": "5.2.0.0"
}